Machine Learning
…
1.4 模型比较

Code
models <- list("LDA" = lda_fit,
               "KNN" = knn_fit)
preds <- imap_dfr(models, augment, 
                  new_data = Smarket, .id = "model")

preds %>%
  dplyr::select(model, Direction, .pred_class, .pred_Down, .pred_Up)
#> # A tibble: 2,500 × 5
#>    model Direction .pred_class .pred_Down .pred_Up
#>    <chr> <fct>     <fct>            <dbl>    <dbl>
#>  1 LDA   Up        Up               0.486    0.514
#>  2 LDA   Up        Down             0.503    0.497
#>  3 LDA   Down      Down             0.510    0.490
#>  4 LDA   Up        Up               0.482    0.518
#>  5 LDA   Up        Up               0.485    0.515
#>  6 LDA   Up        Up               0.492    0.508
#>  7 LDA   Down      Down             0.509    0.491
#>  8 LDA   Up        Up               0.490    0.510
#>  9 LDA   Up        Up               0.477    0.523
#> 10 LDA   Up        Down             0.505    0.495
#> # ℹ 2,490 more rows
…
