Machine Learning
…
kmeans_fit$fit$cluster
#>  1  2  3  4  5  6  7  8  9 10 11 12 13 14 15 16 17 18 19 20 21 22 23 24 25 26 
#>  1  1  2  2  2  2  1  2  1  2  1  1  1  2  2  2  2  1  2  1  2  1  1  1  1  3 
#> 27 28 29 30 31 32 33 34 35 36 37 38 39 40 41 42 43 44 45 46 47 48 49 50 
#>  3  3  3  3  3  3  3  3  3  3  3  1  3  3  3  3  3  3  3  3  3  3  3  3

Code
predict(kmeans_fit, new_data = x_df)
#> # A tibble: 50 × 1
#>    .pred_cluster
#>    <fct>        
#>  1 Cluster_1    
#>  2 Cluster_1    
#>  3 Cluster_2    
#>  4 Cluster_2    
#>  5 Cluster_2    
#>  6 Cluster_2    
#>  7 Cluster_1    
#>  8 Cluster_2    
#>  9 Cluster_1    
#> 10 Cluster_2    
#> # ℹ 40 more rows
augment(kmeans_fit, new_data = x_df)
#> # A tibble: 50 × 3
#>         V1     V2 .pred_cluster
#>      <dbl>  <dbl> <fct>        
#>  1  0.0187 -0.401 Cluster_1    
#>  2 -0.184  -0.335 Cluster_1    
#>  3 -1.37    1.37  Cluster_2    
#>  4 -0.599   2.14  Cluster_2    
#>  5  0.295   0.506 Cluster_2    
#>  6  0.390   0.786 Cluster_2    
#>  7 -1.21   -0.902 Cluster_1    
#>  8 -0.364   0.533 Cluster_2    
#>  9 -1.63   -0.646 Cluster_1    
#> 10 -0.256   0.291 Cluster_2    
#> # ℹ 40 more rows
…
