Machine Learning
…
# Input 6 roles 1+5
basic_rec <-  recipe(
    Sale_Price ~ Neighborhood + Gr_Liv_Area + Year_Built + Bldg_Type + Longitude + Latitude,
    data = ames_train ) %>%
    step_other(all_nominal_predictors(), threshold = 0.05) 

ames_train %>% select(Sale_Price ,
                      Neighborhood ,
                      Gr_Liv_Area ,
                      Year_Built ,
                      Bldg_Type,
                      Longitude,
                      Latitude)
#> # A tibble: 2,342 × 7
#>    Sale_Price Neighborhood   Gr_Liv_Area Year_Built Bldg_Type Longitude Latitude
#>         <dbl> <fct>                <int>      <int> <fct>         <dbl>    <dbl>
#>  1       5.02 North_Ames             896       1961 OneFam        -93.6     42.1
#>  2       5.10 North_Ames             882       1970 OneFam        -93.6     42.1
#>  3       4.98 Briardale              987       1971 Twnhs         -93.6     42.1
#>  4       4.94 Briardale             1092       1971 Twnhs         -93.6     42.1
#>  5       5.11 Northpark_Vil…        1069       1977 TwnhsE        -93.6     42.0
#>  6       5.08 Northpark_Vil…         836       1975 Twnhs         -93.6     42.1
#>  7       5.00 Sawyer_West            918       1979 TwnhsE        -93.7     42.0
#>  8       5.10 Sawyer_West            752       1984 TwnhsE        -93.7     42.0
#>  9       4.83 Sawyer_West           1012       1920 OneFam        -93.7     42.0
#> 10       5.05 Sawyer                1902       1978 Duplex        -93.7     42.0
#> # ℹ 2,332 more rows
…
# 查看变换后的数据
transform_rec %>% 
    prep() %>% 
    bake(new_data = NULL )
#> # A tibble: 2,342 × 15
#>    Gr_Liv_Area Year_Built Longitude Latitude Sale_Price Neighborhood_College_C…¹
#>          <dbl>      <int>     <dbl>    <dbl>      <dbl>                    <dbl>
#>  1        2.95       1961     0.899  1.00          5.02                        0
#>  2        2.95       1970     0.611  1.02          5.10                        0
#>  3        2.99       1971     0.605  0.940         4.98                        0
#>  4        3.04       1971     0.605  0.932         4.94                        0
#>  5        3.03       1977     0.606  0.823         5.11                        0
#>  6        2.92       1975     0.656  0.878         5.08                        0
#>  7        2.96       1979    -1.70   0.00674       5.00                        0
#>  8        2.88       1984    -1.70   0.0127        5.10                        0
#>  9        3.01       1920    -1.42   0.0872        4.83                        0
#> 10        3.28       1978    -1.35   0.112         5.05                        0
#> # ℹ 2,332 more rows
#> # ℹ abbreviated name: ¹​Neighborhood_College_Creek
#> # ℹ 9 more variables: Neighborhood_Old_Town <dbl>, Neighborhood_Edwards <dbl>,
#> #   Neighborhood_Somerset <dbl>, Neighborhood_Northridge_Heights <dbl>,
#> #   Neighborhood_Gilbert <dbl>, Neighborhood_Sawyer <dbl>,
#> #   Neighborhood_other <dbl>, Bldg_Type_TwnhsE <dbl>, Bldg_Type_other <dbl>
…
predict(lm_fit, ames_test,type = "conf_int")
#> # A tibble: 588 × 2
#>    .pred_lower .pred_upper
#>          <dbl>       <dbl>
#>  1        5.22        5.24
#>  2        5.28        5.30
#>  3        5.27        5.29
#>  4        5.26        5.28
#>  5        5.25        5.27
#>  6        5.23        5.25
#>  7        5.23        5.25
#>  8        5.23        5.25
#>  9        5.23        5.25
#> 10        5.29        5.31
#> # ℹ 578 more rows
…
