Machine Learning
…
Code
predict(lda_fit, new_data = Smarket)
#> # A tibble: 1,250 × 1
#>    .pred_class
#>    <fct>      
#>  1 Up         
#>  2 Down       
#>  3 Down       
#>  4 Up         
#>  5 Up         
#>  6 Up         
#>  7 Down       
#>  8 Up         
#>  9 Up         
#> 10 Down       
#> # ℹ 1,240 more rows
predict(lda_fit, new_data = Smarket, type = "prob")
#> # A tibble: 1,250 × 2
#>    .pred_Down .pred_Up
#>         <dbl>    <dbl>
#>  1      0.486    0.514
#>  2      0.503    0.497
#>  3      0.510    0.490
#>  4      0.482    0.518
#>  5      0.485    0.515
#>  6      0.492    0.508
#>  7      0.509    0.491
#>  8      0.490    0.510
#>  9      0.477    0.523
#> 10      0.505    0.495
#> # ℹ 1,240 more rows
…
