Machine Learning
…
#  拟合
lm_fit <- fit(lm_wflow, ames_train)

1.1 预测

predict(object, new_data, type = NULL, opts = list(), ...)

1.1.1 回归

“raw”，“numeric” ，“conf_int”，“pred_int”

Code
predict(lm_fit,new_data =  ames_test,type ="conf_int")
#> # A tibble: 588 × 2
#>    .pred_lower .pred_upper
#>          <dbl>       <dbl>
#>  1        5.22        5.27
#>  2        5.25        5.29
#>  3        5.22        5.26
#>  4        5.18        5.24
#>  5        5.62        5.69
#>  6        5.10        5.15
#>  7        5.02        5.07
#>  8        5.19        5.25
#>  9        4.97        5.03
#> 10        5.28        5.35
#> # ℹ 578 more rows
…
Code
#  "time"，"hazard","survival"，"linear_pred"

1.1.4 特殊

Code
# "quantile", "raw"

1.2 添加

augment(x = fit, new_data, eval_time = NULL, ...)

Code
augment(lm_fit, new_data = ames_test) %>% select(1:2,Sale_Price)
#> # A tibble: 588 × 3
#>    .pred  .resid Sale_Price
#>    <dbl>   <dbl>      <dbl>
#>  1  5.24  0.0881       5.33
#>  2  5.27  0.0162       5.29
#>  3  5.24  0.0161       5.26
#>  4  5.21  0.0263       5.23
#>  5  5.65  0.0761       5.73
#>  6  5.13  0.0462       5.17
#>  7  5.04  0.0160       5.06
#>  8  5.22  0.0465       5.26
#>  9  5.00  0.0214       5.02
#> 10  5.32 -0.0730       5.24
#> # ℹ 578 more rows
…
Code
tidy(lm_fit)
#> # A tibble: 72 × 5
#>    term                            estimate std.error statistic   p.value
#>    <chr>                              <dbl>     <dbl>     <dbl>     <dbl>
#>  1 (Intercept)                     -0.662    0.298        -2.22 2.66e-  2
#>  2 Gr_Liv_Area                      0.650    0.0155       41.9  1.05e-284
#>  3 Year_Built                       0.00194  0.000137     14.2  5.05e- 44
#>  4 Neighborhood_College_Creek      -0.0377   0.0327       -1.15 2.49e-  1
#>  5 Neighborhood_Old_Town           -0.0355   0.0123       -2.90 3.81e-  3
#>  6 Neighborhood_Edwards            -0.0785   0.0268       -2.93 3.41e-  3
#>  7 Neighborhood_Somerset            0.0638   0.0188        3.39 7.23e-  4
#>  8 Neighborhood_Northridge_Heights  0.143    0.0272        5.26 1.56e-  7
#>  9 Neighborhood_Gilbert             0.0223   0.0213        1.04 2.96e-  1
#> 10 Neighborhood_Sawyer             -0.115    0.0252       -4.58 5.00e-  6
#> # ℹ 62 more rows

1.4 回归指标

Code
ames_test_res <- predict(lm_fit, new_data = ames_test %>% select(-Sale_Price))
ames_test_res
#> # A tibble: 588 × 1
#>    .pred
#>    <dbl>
#>  1  5.24
#>  2  5.27
#>  3  5.24
#>  4  5.21
#>  5  5.65
#>  6  5.13
#>  7  5.04
#>  8  5.22
#>  9  5.00
#> 10  5.32
#> # ℹ 578 more rows

ames_test_res <- bind_cols(ames_test_res, ames_test %>% select(Sale_Price))
ames_test_res
#> # A tibble: 588 × 2
#>    .pred Sale_Price
#>    <dbl>      <dbl>
#>  1  5.24       5.33
#>  2  5.27       5.29
#>  3  5.24       5.26
#>  4  5.21       5.23
#>  5  5.65       5.73
#>  6  5.13       5.17
#>  7  5.04       5.06
#>  8  5.22       5.26
#>  9  5.00       5.02
#> 10  5.32       5.24
#> # ℹ 578 more rows
…
1.5 分类指标

1.5.1 二分类

Code
data(two_class_example)
tibble(two_class_example)
#> # A tibble: 500 × 4
#>    truth   Class1   Class2 predicted
#>    <fct>    <dbl>    <dbl> <fct>    
#>  1 Class2 0.00359 0.996    Class2   
#>  2 Class1 0.679   0.321    Class1   
#>  3 Class2 0.111   0.889    Class2   
#>  4 Class1 0.735   0.265    Class1   
#>  5 Class2 0.0162  0.984    Class2   
#>  6 Class1 0.999   0.000725 Class1   
#>  7 Class1 0.999   0.000799 Class1   
#>  8 Class1 0.812   0.188    Class1   
#>  9 Class2 0.457   0.543    Class2   
#> 10 Class2 0.0976  0.902    Class2   
#> # ℹ 490 more rows
…
Code
f_meas(two_class_example, truth, predicted, event_level = "second")
#> # A tibble: 1 × 3
#>   .metric .estimator .estimate
#>   <chr>   <chr>          <dbl>
#> 1 f_meas  binary         0.826

1.5.1.1 ROC，AUC

不使用预测类列,对于两类问题，感兴趣事件的概率列将传递到函数中

Code
two_class_curve <- roc_curve(two_class_example, truth, Class1)
two_class_curve
#> # A tibble: 502 × 3
#>    .threshold specificity sensitivity
#>         <dbl>       <dbl>       <dbl>
#>  1 -Inf           0                 1
#>  2    1.79e-7     0                 1
#>  3    4.50e-6     0.00413           1
#>  4    5.81e-6     0.00826           1
#>  5    5.92e-6     0.0124            1
#>  6    1.22e-5     0.0165            1
#>  7    1.40e-5     0.0207            1
#>  8    1.43e-5     0.0248            1
#>  9    2.38e-5     0.0289            1
#> 10    3.30e-5     0.0331            1
#> # ℹ 492 more rows
…
1.5.2 多分类

Code
data(hpc_cv)
tibble(hpc_cv)
#> # A tibble: 3,467 × 7
#>    obs   pred     VF      F       M          L Resample
#>    <fct> <fct> <dbl>  <dbl>   <dbl>      <dbl> <chr>   
#>  1 VF    VF    0.914 0.0779 0.00848 0.0000199  Fold01  
#>  2 VF    VF    0.938 0.0571 0.00482 0.0000101  Fold01  
#>  3 VF    VF    0.947 0.0495 0.00316 0.00000500 Fold01  
#>  4 VF    VF    0.929 0.0653 0.00579 0.0000156  Fold01  
#>  5 VF    VF    0.942 0.0543 0.00381 0.00000729 Fold01  
#>  6 VF    VF    0.951 0.0462 0.00272 0.00000384 Fold01  
#>  7 VF    VF    0.914 0.0782 0.00767 0.0000354  Fold01  
#>  8 VF    VF    0.918 0.0744 0.00726 0.0000157  Fold01  
#>  9 VF    VF    0.843 0.128  0.0296  0.000192   Fold01  
#> 10 VF    VF    0.920 0.0728 0.00703 0.0000147  Fold01  
#> # ℹ 3,457 more rows
…
