Machine Learning
…
#>  9 Fold05 rmse    standard      0.0738 Preprocessor1_Model1
#> 10 Fold05 rsq     standard      0.857  Preprocessor1_Model1
#> 11 Fold06 rmse    standard      0.0678 Preprocessor1_Model1
#> 12 Fold06 rsq     standard      0.860  Preprocessor1_Model1
#> 13 Fold07 rmse    standard      0.0644 Preprocessor1_Model1
#> 14 Fold07 rsq     standard      0.873  Preprocessor1_Model1
#> 15 Fold08 rmse    standard      0.0673 Preprocessor1_Model1
#> 16 Fold08 rsq     standard      0.829  Preprocessor1_Model1
#> 17 Fold09 rmse    standard      0.0719 Preprocessor1_Model1
#> 18 Fold09 rsq     standard      0.840  Preprocessor1_Model1
#> 19 Fold10 rmse    standard      0.0848 Preprocessor1_Model1
#> 20 Fold10 rsq     standard      0.790  Preprocessor1_Model1
assess_res <- collect_predictions(rf_res)
assess_res
#> # A tibble: 2,342 × 5
#>    .pred id      .row Sale_Price .config             
#>    <dbl> <chr>  <int>      <dbl> <chr>               
#>  1  5.17 Fold01    10       5.05 Preprocessor1_Model1
#>  2  5.04 Fold01    27       5.06 Preprocessor1_Model1
#>  3  5.11 Fold01    47       5.10 Preprocessor1_Model1
#>  4  5.14 Fold01    52       5.11 Preprocessor1_Model1
#>  5  5.09 Fold01    59       5.05 Preprocessor1_Model1
#>  6  4.88 Fold01    63       4.77 Preprocessor1_Model1
#>  7  5.01 Fold01    65       5.10 Preprocessor1_Model1
#>  8  5.16 Fold01    66       5    Preprocessor1_Model1
#>  9  4.96 Fold01    67       5.10 Preprocessor1_Model1
#> 10  4.84 Fold01    68       4.91 Preprocessor1_Model1
#> # ℹ 2,332 more rows
…
1.1.2 重复交叉验证

Code
# 10-fold cross-validation repeated 5 times 
vfold_cv(ames_train, v = 10, repeats = 5)
#> #  10-fold cross-validation repeated 5 times 
#> # A tibble: 50 × 3
#>    splits             id      id2   
#>    <list>             <chr>   <chr> 
#>  1 <split [2107/235]> Repeat1 Fold01
#>  2 <split [2107/235]> Repeat1 Fold02
#>  3 <split [2108/234]> Repeat1 Fold03
#>  4 <split [2108/234]> Repeat1 Fold04
#>  5 <split [2108/234]> Repeat1 Fold05
#>  6 <split [2108/234]> Repeat1 Fold06
#>  7 <split [2108/234]> Repeat1 Fold07
#>  8 <split [2108/234]> Repeat1 Fold08
#>  9 <split [2108/234]> Repeat1 Fold09
#> 10 <split [2108/234]> Repeat1 Fold10
#> # ℹ 40 more rows
…
Code
get_model <- function(x) {
  extract_fit_parsnip(x) %>% tidy()
}

get_model(lm_fit)
#> # A tibble: 72 × 5
#>    term                             estimate  std.error statistic   p.value
#>    <chr>                               <dbl>      <dbl>     <dbl>     <dbl>
#>  1 (Intercept)                      0.895    0.303          2.95  3.17e-  3
#>  2 Gr_Liv_Area                      0.000177 0.00000444    39.8   4.16e-263
#>  3 Year_Built                       0.00204  0.000139      14.7   1.51e- 46
#>  4 Neighborhood_College_Creek      -0.0283   0.0334        -0.849 3.96e-  1
#>  5 Neighborhood_Old_Town           -0.0489   0.0125        -3.91  9.48e-  5
#>  6 Neighborhood_Edwards            -0.0823   0.0273        -3.01  2.62e-  3
#>  7 Neighborhood_Somerset            0.0735   0.0192         3.83  1.33e-  4
#>  8 Neighborhood_Northridge_Heights  0.148    0.0278         5.33  1.07e-  7
#>  9 Neighborhood_Gilbert             0.0306   0.0218         1.41  1.60e-  1
#> 10 Neighborhood_Sawyer             -0.111    0.0257        -4.33  1.56e-  5
#> # ℹ 62 more rows
…
Code
lm_res$.extracts[[1]]
#> # A tibble: 1 × 2
#>   .extracts         .config             
#>   <list>            <chr>               
#> 1 <tibble [72 × 5]> Preprocessor1_Model1

lm_res$.extracts[[1]][[1]]
#> [[1]]
#> # A tibble: 72 × 5
#>    term                             estimate  std.error statistic   p.value
#>    <chr>                               <dbl>      <dbl>     <dbl>     <dbl>
#>  1 (Intercept)                      0.950    0.324          2.93  3.42e-  3
#>  2 Gr_Liv_Area                      0.000175 0.00000481    36.3   4.09e-223
#>  3 Year_Built                       0.00201  0.000149      13.5   1.08e- 39
#>  4 Neighborhood_College_Creek      -0.0273   0.0359        -0.762 4.46e-  1
#>  5 Neighborhood_Old_Town           -0.0543   0.0134        -4.04  5.51e-  5
#>  6 Neighborhood_Edwards            -0.0825   0.0293        -2.81  4.95e-  3
#>  7 Neighborhood_Somerset            0.0706   0.0207         3.40  6.76e-  4
#>  8 Neighborhood_Northridge_Heights  0.139    0.0298         4.65  3.55e-  6
#>  9 Neighborhood_Gilbert             0.0197   0.0235         0.835 4.04e-  1
#> 10 Neighborhood_Sawyer             -0.117    0.0273        -4.30  1.77e-  5
#> # ℹ 62 more rows
…
