Machine Learning
…
训练模型：使用所有特征训练随机森林模型。

计算基线误差：使用训练好的模型在验证集上计算基线误差（例如，均方误差）。

扰动特征值：对于每个特征，随机打乱验证集中该特征的值，从而破坏其与目标变量的关系。 重新计算误差：使用扰动后的数据再次计算模型误差。

计算重要性：特征重要性得分等于扰动后的误差与基线误差之差。误差增加越多，说明该特征对模型预测的贡献越大。

Code
# 查看特征重要性
importance <- reg_rf_fit %>%
    extract_fit_parsnip() %>%
    vip::vi()
vip::vi(reg_rf_fit$fit$fit) 
#> # A tibble: 26 × 2
#>    Variable Importance
#>    <chr>         <dbl>
#>  1 HL             34.9
#>  2 NE_A           29.4
#>  3 Sport          21.9
#>  4 SA             14.6
#>  5 I              14.1
#>  6 SMML           13.6
#>  7 FC             13.5
#>  8 BECKNC         13.2
#>  9 YS             12.8
#> 10 MVS            12.6
#> # ℹ 16 more rows
…
