Machine Learning
…
# recepe

1.4.2 预测

Code

# 回归 "numeric" , "conf_int","pred_int","raw".
#  censored regression   "time"，"hazard","survival"
# 分类  "class", "prob",
# "quantile"

# When NULL, predict() will choose an appropriate value based on the model's mode.
predict(lm_fit, ames_test)  # "numeric"
#> # A tibble: 588 × 1
#>    .pred
#>    <dbl>
#>  1  5.23
#>  2  5.29
#>  3  5.28
#>  4  5.27
#>  5  5.26
#>  6  5.24
#>  7  5.24
#>  8  5.24
#>  9  5.24
#> 10  5.30
#> # ℹ 578 more rows
…
df <-  read_delim("data/lme_anova.txt",) |> pivot_longer(cols = 3:7,names_to = "time",values_to = "BP") |> 
    mutate_at(1:3,as.factor)
#> Rows: 15 Columns: 7
#> ── Column specification ────────────────────────────────────────────────────────
#> Delimiter: "\t"
#> chr (1): induced_method
#> dbl (6): subject, t0, t1, t2, t3, t4
#> 
#> ℹ Use `spec()` to retrieve the full column specification for this data.
#> ℹ Specify the column types or set `show_col_types = FALSE` to quiet this message.
df
#> # A tibble: 75 × 4
#>    subject induced_method time     BP
#>    <fct>   <fct>          <fct> <dbl>
#>  1 1       A              t0      120
#>  2 1       A              t1      108
#>  3 1       A              t2      112
#>  4 1       A              t3      120
#>  5 1       A              t4      117
#>  6 2       A              t0      118
#>  7 2       A              t1      109
#>  8 2       A              t2      115
#>  9 2       A              t3      126
#> 10 2       A              t4      123
#> # ℹ 65 more rows
…
lm_fit <- fit(lm_wflow, ames_train)
predict(lm_fit, ames_test)
#> Warning in predict.lm(object = object$fit, newdata = new_data, type =
#> "response", : prediction from rank-deficient fit; consider predict(.,
#> rankdeficient="NA")
#> # A tibble: 588 × 1
#>    .pred
#>    <dbl>
#>  1  5.24
#>  2  5.27
#>  3  5.24
#>  4  5.20
#>  5  5.66
#>  6  5.12
#>  7  5.08
#>  8  5.22
#>  9  5.00
#> 10  5.37
#> # ℹ 578 more rows
…
lm_fit %>% 
  extract_fit_parsnip() %>% 
  tidy()
#> # A tibble: 35 × 5
#>    term                            estimate std.error statistic   p.value
#>    <chr>                              <dbl>     <dbl>     <dbl>     <dbl>
#>  1 (Intercept)                     -1.10     0.234       -4.70  2.72e-  6
#>  2 Gr_Liv_Area                      0.646    0.0143      45.0   1.88e-318
#>  3 Year_Built                       0.00217  0.000118    18.5   3.21e- 71
#>  4 Neighborhood_College_Creek       0.00897  0.00841      1.07  2.87e-  1
#>  5 Neighborhood_Old_Town           -0.0178   0.00846     -2.11  3.51e-  2
#>  6 Neighborhood_Edwards            -0.0413   0.00769     -5.37  8.59e-  8
#>  7 Neighborhood_Somerset            0.0433   0.00992      4.37  1.30e-  5
#>  8 Neighborhood_Northridge_Heights  0.129    0.0102      12.7   6.96e- 36
#>  9 Neighborhood_Gilbert            -0.0437   0.00939     -4.65  3.43e-  6
#> 10 Neighborhood_Sawyer             -0.00785  0.00841     -0.933 3.51e-  1
#> # ℹ 25 more rows
…
lm_wflow <- 
  workflow() %>% 
  add_model(lm_model) %>% 
  add_recipe(ames_rec)

lm_fit <- fit(lm_wflow, ames_train)

estimated_recipe <- 
  lm_fit %>% 
  extract_recipe(estimated = TRUE)

tidy(estimated_recipe, id = "my_id")
#> # A tibble: 21 × 3
#>    terms        retained           id   
#>    <chr>        <chr>              <chr>
#>  1 Neighborhood North_Ames         my_id
#>  2 Neighborhood College_Creek      my_id
#>  3 Neighborhood Old_Town           my_id
#>  4 Neighborhood Edwards            my_id
#>  5 Neighborhood Somerset           my_id
#>  6 Neighborhood Northridge_Heights my_id
#>  7 Neighborhood Gilbert            my_id
#>  8 Neighborhood Sawyer             my_id
#>  9 Neighborhood Northwest_Ames     my_id
#> 10 Neighborhood Sawyer_West        my_id
#> # ℹ 11 more rows
tidy(estimated_recipe, number = 2)
#> # A tibble: 21 × 3
#>    terms        retained           id   
#>    <chr>        <chr>              <chr>
#>  1 Neighborhood North_Ames         my_id
#>  2 Neighborhood College_Creek      my_id
#>  3 Neighborhood Old_Town           my_id
#>  4 Neighborhood Edwards            my_id
#>  5 Neighborhood Somerset           my_id
#>  6 Neighborhood Northridge_Heights my_id
#>  7 Neighborhood Gilbert            my_id
#>  8 Neighborhood Sawyer             my_id
#>  9 Neighborhood Northwest_Ames     my_id
#> 10 Neighborhood Sawyer_West        my_id
#> # ℹ 11 more rows
…
1.5.9 自然语言处理

textrecipes

1.6 模型评估 yardstick

1.6.1 回归指标

Code
ames_test_res <- predict(lm_fit, new_data = ames_test %>% select(-Sale_Price))
ames_test_res
#> # A tibble: 588 × 1
#>    .pred
#>    <dbl>
#>  1  5.24
#>  2  5.27
#>  3  5.24
#>  4  5.21
#>  5  5.65
#>  6  5.13
#>  7  5.04
#>  8  5.22
#>  9  5.00
#> 10  5.32
#> # ℹ 578 more rows

ames_test_res <- bind_cols(ames_test_res, ames_test %>% select(Sale_Price))
ames_test_res
#> # A tibble: 588 × 2
#>    .pred Sale_Price
#>    <dbl>      <dbl>
#>  1  5.24       5.33
#>  2  5.27       5.29
#>  3  5.24       5.26
#>  4  5.21       5.23
#>  5  5.65       5.73
#>  6  5.13       5.17
#>  7  5.04       5.06
#>  8  5.22       5.26
#>  9  5.00       5.02
#> 10  5.32       5.24
#> # ℹ 578 more rows
…
1.6.2 二分类指标

Code
data(two_class_example)
tibble(two_class_example)
#> # A tibble: 500 × 4
#>    truth   Class1   Class2 predicted
#>    <fct>    <dbl>    <dbl> <fct>    
#>  1 Class2 0.00359 0.996    Class2   
#>  2 Class1 0.679   0.321    Class1   
#>  3 Class2 0.111   0.889    Class2   
#>  4 Class1 0.735   0.265    Class1   
#>  5 Class2 0.0162  0.984    Class2   
#>  6 Class1 0.999   0.000725 Class1   
#>  7 Class1 0.999   0.000799 Class1   
#>  8 Class1 0.812   0.188    Class1   
#>  9 Class2 0.457   0.543    Class2   
#> 10 Class2 0.0976  0.902    Class2   
#> # ℹ 490 more rows
…
Code
f_meas(two_class_example, truth, predicted, event_level = "second")
#> # A tibble: 1 × 3
#>   .metric .estimator .estimate
#>   <chr>   <chr>          <dbl>
#> 1 f_meas  binary         0.826

1.6.2.1 ROC，AUC

不使用预测类列,对于两类问题，感兴趣事件的概率列将传递到函数中

Code
two_class_curve <- roc_curve(two_class_example, truth, Class1)
two_class_curve
#> # A tibble: 502 × 3
#>    .threshold specificity sensitivity
#>         <dbl>       <dbl>       <dbl>
#>  1 -Inf           0                 1
#>  2    1.79e-7     0                 1
#>  3    4.50e-6     0.00413           1
#>  4    5.81e-6     0.00826           1
#>  5    5.92e-6     0.0124            1
#>  6    1.22e-5     0.0165            1
#>  7    1.40e-5     0.0207            1
#>  8    1.43e-5     0.0248            1
#>  9    2.38e-5     0.0289            1
#> 10    3.30e-5     0.0331            1
#> # ℹ 492 more rows
…
1.6.3 多分类指标

Code
data(hpc_cv)
tibble(hpc_cv)
#> # A tibble: 3,467 × 7
#>    obs   pred     VF      F       M          L Resample
#>    <fct> <fct> <dbl>  <dbl>   <dbl>      <dbl> <chr>   
#>  1 VF    VF    0.914 0.0779 0.00848 0.0000199  Fold01  
#>  2 VF    VF    0.938 0.0571 0.00482 0.0000101  Fold01  
#>  3 VF    VF    0.947 0.0495 0.00316 0.00000500 Fold01  
#>  4 VF    VF    0.929 0.0653 0.00579 0.0000156  Fold01  
#>  5 VF    VF    0.942 0.0543 0.00381 0.00000729 Fold01  
#>  6 VF    VF    0.951 0.0462 0.00272 0.00000384 Fold01  
#>  7 VF    VF    0.914 0.0782 0.00767 0.0000354  Fold01  
#>  8 VF    VF    0.918 0.0744 0.00726 0.0000157  Fold01  
#>  9 VF    VF    0.843 0.128  0.0296  0.000192   Fold01  
#> 10 VF    VF    0.920 0.0728 0.00703 0.0000147  Fold01  
#> # ℹ 3,457 more rows
…
#>  9 Fold05 rmse    standard      0.0738 Preprocessor1_Model1
#> 10 Fold05 rsq     standard      0.857  Preprocessor1_Model1
#> 11 Fold06 rmse    standard      0.0678 Preprocessor1_Model1
#> 12 Fold06 rsq     standard      0.860  Preprocessor1_Model1
#> 13 Fold07 rmse    standard      0.0644 Preprocessor1_Model1
#> 14 Fold07 rsq     standard      0.873  Preprocessor1_Model1
#> 15 Fold08 rmse    standard      0.0673 Preprocessor1_Model1
#> 16 Fold08 rsq     standard      0.829  Preprocessor1_Model1
#> 17 Fold09 rmse    standard      0.0719 Preprocessor1_Model1
#> 18 Fold09 rsq     standard      0.840  Preprocessor1_Model1
#> 19 Fold10 rmse    standard      0.0848 Preprocessor1_Model1
#> 20 Fold10 rsq     standard      0.790  Preprocessor1_Model1
assess_res <- collect_predictions(rf_res)
assess_res
#> # A tibble: 2,342 × 5
#>    .pred id      .row Sale_Price .config             
#>    <dbl> <chr>  <int>      <dbl> <chr>               
#>  1  5.17 Fold01    10       5.05 Preprocessor1_Model1
#>  2  5.04 Fold01    27       5.06 Preprocessor1_Model1
#>  3  5.11 Fold01    47       5.10 Preprocessor1_Model1
#>  4  5.14 Fold01    52       5.11 Preprocessor1_Model1
#>  5  5.09 Fold01    59       5.05 Preprocessor1_Model1
#>  6  4.88 Fold01    63       4.77 Preprocessor1_Model1
#>  7  5.01 Fold01    65       5.10 Preprocessor1_Model1
#>  8  5.16 Fold01    66       5    Preprocessor1_Model1
#>  9  4.96 Fold01    67       5.10 Preprocessor1_Model1
#> 10  4.84 Fold01    68       4.91 Preprocessor1_Model1
#> # ℹ 2,332 more rows
…
重复交叉验证

Code
# 10-fold cross-validation repeated 5 times 
vfold_cv(ames_train, v = 10, repeats = 5)
#> #  10-fold cross-validation repeated 5 times 
#> # A tibble: 50 × 3
#>    splits             id      id2   
#>    <list>             <chr>   <chr> 
#>  1 <split [2107/235]> Repeat1 Fold01
#>  2 <split [2107/235]> Repeat1 Fold02
#>  3 <split [2108/234]> Repeat1 Fold03
#>  4 <split [2108/234]> Repeat1 Fold04
#>  5 <split [2108/234]> Repeat1 Fold05
#>  6 <split [2108/234]> Repeat1 Fold06
#>  7 <split [2108/234]> Repeat1 Fold07
#>  8 <split [2108/234]> Repeat1 Fold08
#>  9 <split [2108/234]> Repeat1 Fold09
#> 10 <split [2108/234]> Repeat1 Fold10
#> # ℹ 40 more rows
…
Code
get_model <- function(x) {
  extract_fit_parsnip(x) %>% tidy()
}

get_model(lm_fit)
#> # A tibble: 72 × 5
#>    term                             estimate  std.error statistic   p.value
#>    <chr>                               <dbl>      <dbl>     <dbl>     <dbl>
#>  1 (Intercept)                      0.895    0.303          2.95  3.17e-  3
#>  2 Gr_Liv_Area                      0.000177 0.00000444    39.8   4.16e-263
#>  3 Year_Built                       0.00204  0.000139      14.7   1.51e- 46
#>  4 Neighborhood_College_Creek      -0.0283   0.0334        -0.849 3.96e-  1
#>  5 Neighborhood_Old_Town           -0.0489   0.0125        -3.91  9.48e-  5
#>  6 Neighborhood_Edwards            -0.0823   0.0273        -3.01  2.62e-  3
#>  7 Neighborhood_Somerset            0.0735   0.0192         3.83  1.33e-  4
#>  8 Neighborhood_Northridge_Heights  0.148    0.0278         5.33  1.07e-  7
#>  9 Neighborhood_Gilbert             0.0306   0.0218         1.41  1.60e-  1
#> 10 Neighborhood_Sawyer             -0.111    0.0257        -4.33  1.56e-  5
#> # ℹ 62 more rows
…
Code
lm_res$.extracts[[1]]
#> # A tibble: 1 × 2
#>   .extracts         .config             
#>   <list>            <chr>               
#> 1 <tibble [72 × 5]> Preprocessor1_Model1

lm_res$.extracts[[1]][[1]]
#> [[1]]
#> # A tibble: 72 × 5
#>    term                             estimate  std.error statistic   p.value
#>    <chr>                               <dbl>      <dbl>     <dbl>     <dbl>
#>  1 (Intercept)                      0.950    0.324          2.93  3.42e-  3
#>  2 Gr_Liv_Area                      0.000175 0.00000481    36.3   4.09e-223
#>  3 Year_Built                       0.00201  0.000149      13.5   1.08e- 39
#>  4 Neighborhood_College_Creek      -0.0273   0.0359        -0.762 4.46e-  1
#>  5 Neighborhood_Old_Town           -0.0543   0.0134        -4.04  5.51e-  5
#>  6 Neighborhood_Edwards            -0.0825   0.0293        -2.81  4.95e-  3
#>  7 Neighborhood_Somerset            0.0706   0.0207         3.40  6.76e-  4
#>  8 Neighborhood_Northridge_Heights  0.139    0.0298         4.65  3.55e-  6
#>  9 Neighborhood_Gilbert             0.0197   0.0235         0.835 4.04e-  1
#> 10 Neighborhood_Sawyer             -0.117    0.0273        -4.30  1.77e-  5
#> # ℹ 62 more rows
…
